{
  "posts": [
    {
      "id": 1,
      "title": "json-server",
      "author": "typicode"
    }
  ],
  "comments": [
    {
      "id": 1,
      "body": "some comment",
      "postId": 1
    }
  ],
  "profile": {
    "name": "typicode"
  },
  "students": [
    {
      "firstName": "hareesh",
      "lastName": "M",
      "email": "hari@gmail.com",
      "phoneNo": "9442071889",
      "dob": "1999-07-25T18:30:00.000Z",
      "address": "10/23 keezhpammam",
      "status": "one",
      "batch": "Batch-6",
      "course": "Angular Ts",
      "id": 1
    },
    {
      "firstName": "Ajay",
      "lastName": "R",
      "email": "ajay@gmail.com",
      "phoneNo": "2458555444",
      "dob": "2023-10-31T18:30:00.000Z",
      "address": "qwertyuiopasdfghjk",
      "status": "two",
      "batch": "Batch-3",
      "course": "React Js",
      "id": 2
    },
    {
      "firstName": "Rogin",
      "lastName": "J",
      "email": "rogin@gmail.com",
      "phoneNo": "9566358712",
      "dob": "2003-01-23T18:30:00.000Z",
      "address": "23-10 Near Dubai bus stop,\nmain road.",
      "status": "one",
      "batch": "Batch-5",
      "course": "Node Js",
      "id": 3
    },
    {
      "firstName": "Canisius",
      "lastName": "CC",
      "email": "cani@gmail.com",
      "phoneNo": "8897456123",
      "dob": "1998-04-07T18:30:00.000Z",
      "address": "19/55H, Newyork ,\nAttoor",
      "status": "two",
      "batch": "Batch-6",
      "course": "Node Js",
      "id": 4
    }
  ]
}